<svg xmlns="http://www.w3.org/2000/svg" fill="none" viewBox="0 0 35 35">
  <path fill="#46B3FC" d="M0 0h35v35H0z"/>
  <path d="M22 11l2.29 2.29-4.88 4.88-4-4L8 21.59 9.41 23l6-6 4 4 6.3-6.29L28 17v-6h-6z" fill="#fff"/>
</svg>
